Unnamed: 0,H,Customer_Name,Customer_Id,Open_Date,Last_Consulted_Date,Vaccination_Id,Dr_Name,State,Country,DOB,Is_Active
,D,Alex,123457,20101012,20121013,MVD,Paul,SA,USA,6031987,A
,D,John,123458,20101012,20121013,MVD,Paul,TN,IND,6031987,A
,D,Mathew,123459,20101012,20121013,MVD,Paul,WAS,PHIL,6031987,A
,D,Matt,12345,20101012,20121013,MVD,Paul,BOS,NYC,6031987,A
,D,Jacob,1256,20101012,20121013,MVD,Paul,VIC,AU,6031987,A
